[
  {
    "libraryIdentifier" : "41a84974631052e2883e461a02db9565",
    "format" : "image",
    "displayName" : "pad39A.jpeg"
  },
  {
    "libraryIdentifier" : "6978a4742b2c4b37128aaee946374e3f",
    "format" : "model",
    "displayName" : "falcon9.usdz"
  },
  {
    "libraryIdentifier" : "a0f0ff2e1562b842dd5f1430ca4a58f6",
    "format" : "model",
    "displayName" : "falcon9.usdz"
  },
  {
    "libraryIdentifier" : "0ed5b181df5b718126f56ad3f5996690",
    "format" : "model",
    "displayName" : "falcon1.usdz"
  },
  {
    "libraryIdentifier" : "53ca175ed688379909310554d3f0c6c9",
    "format" : "model",
    "displayName" : "falcon1.usdz"
  },
  {
    "libraryIdentifier" : "3753c842d9d17b73dfcc863f4ced0191",
    "format" : "model",
    "displayName" : "planet_Earth260.usdz"
  },
  {
    "libraryIdentifier" : "3dea4ca3e69ef62ce04ce2a967a871fe",
    "format" : "image",
    "displayName" : "pad39A2.png"
  },
  {
    "libraryIdentifier" : "c6d16822976a7da5c38e66f17d0eba85",
    "format" : "model",
    "displayName" : "falconH9.usdz"
  },
  {
    "libraryIdentifier" : "237b441b108774ea4bd494ca9f37f838",
    "format" : "model",
    "displayName" : "falconH.usdz"
  },
  {
    "libraryIdentifier" : "a0e058b97a02b464ce68845bbfb680e6",
    "format" : "model",
    "displayName" : "falconH.usdz"
  },
  {
    "libraryIdentifier" : "246398e42ad1fce8a44a9f0b84977b51",
    "format" : "model",
    "displayName" : "falconH2.usdz"
  },
  {
    "libraryIdentifier" : "bff8e4e72d0a37b084747f6117e7a1af",
    "format" : "model",
    "displayName" : "mars.usdz"
  },
  {
    "libraryIdentifier" : "068ee0edc1ff2a9a6d24a15cafee7300",
    "format" : "model",
    "displayName" : "scene9ox4lg26c8plrizb.usdz"
  },
  {
    "libraryIdentifier" : "645d7303e06a98fb9f47336c0432c7d4",
    "format" : "model",
    "displayName" : "scene9ox4lg26c8plrizb.usdz"
  },
  {
    "libraryIdentifier" : "c3560ef6c7020277b7cc56c6912ea25d",
    "format" : "model",
    "displayName" : "scenedkgi4n5vhislqf7k.usdz"
  },
  {
    "libraryIdentifier" : "73ee478b51a5a0323056ab4a26ae958c",
    "format" : "model",
    "displayName" : "scenedkgi4n5vhislqf7k.usdz"
  },
  {
    "libraryIdentifier" : "3f1d0e06309eb183e8938af752ac1dbe",
    "format" : "audio",
    "displayName" : "Falcon Heavy Animation (mp3cut.net).mp3"
  },
  {
    "libraryIdentifier" : "7c24d98ada3f67d2d914ee47faa68ea2",
    "format" : "audio",
    "displayName" : "Falcon Heavy Animation 2(mp3cut.net).mp3"
  }
]