{
  "type" : "image",
  "data" : {
    "orientation" : 1,
    "alpha" : false,
    "width" : 1024,
    "resolution" : {
      "x" : 72,
      "y" : 72,
      "unit" : "dpi"
    },
    "height" : 1608
  }
}